…
    ## ── Conflicts ────────────────────────────────────── tidyverse_conflicts() ──
    ## x dplyr::filter() masks stats::filter()
    ## x dplyr::lag()    masks stats::lag()

``` r
library(pokedex)
```

``` r
pokemon %>% 
  select(identifier, type_1, type_2)
```

    ## # A tibble: 807 x 3
    ##    identifier type_1 type_2
    ##    <chr>      <chr>  <chr> 
    ##  1 bulbasaur  grass  poison
    ##  2 ivysaur    grass  poison
    ##  3 venusaur   grass  poison
    ##  4 charmander fire   <NA>  
    ##  5 charmeleon fire   <NA>  
    ##  6 charizard  fire   flying
    ##  7 squirtle   water  <NA>  
    ##  8 wartortle  water  <NA>  
    ##  9 blastoise  water  <NA>  
    ## 10 caterpie   bug    <NA>  
    ## # … with 797 more rows
…
